{
  "prepare_queue": {
    "installed": [],
    "uninstalled": []
  },
  "config_munge": {
    "files": {}
  },
  "installed_plugins": {
    "com-badrit-base64": {
      "PACKAGE_NAME": "com.provab.sirenapplications2"
    },
    "cordova-plugin-advanced-http": {
      "PACKAGE_NAME": "com.provab.sirenapplications2"
    },
    "cordova-plugin-camera": {
      "ANDROID_SUPPORT_V4_VERSION": "27.+",
      "PACKAGE_NAME": "com.provab.sirenapplications2"
    },
    "cordova-plugin-device": {
      "PACKAGE_NAME": "com.provab.sirenapplications2"
    },
    "cordova-plugin-geolocation": {
      "PACKAGE_NAME": "com.provab.sirenapplications2"
    },
    "cordova-plugin-ionic-keyboard": {
      "PACKAGE_NAME": "com.provab.sirenapplications2"
    },
    "cordova-plugin-ionic-webview": {
      "PACKAGE_NAME": "com.provab.sirenapplications2"
    },
    "cordova-plugin-network-information": {
      "PACKAGE_NAME": "com.provab.sirenapplications2"
    },
    "cordova-plugin-splashscreen": {
      "PACKAGE_NAME": "com.provab.sirenapplications2"
    },
    "cordova-plugin-whitelist": {
      "PACKAGE_NAME": "com.provab.sirenapplications2"
    },
    "cordova-plugin-x-toast": {
      "PACKAGE_NAME": "com.provab.sirenapplications2"
    },
    "cordova-sqlite-storage": {
      "PACKAGE_NAME": "com.provab.sirenapplications2"
    },
    "info.protonet.imageresizer": {
      "PACKAGE_NAME": "com.provab.sirenapplications2"
    }
  },
  "dependent_plugins": {
    "cordova-plugin-file": {
      "PACKAGE_NAME": "com.provab.sirenapplications2"
    }
  }
}